\relax 
\providecommand\hyper@newdestlabel[2]{}
\providecommand*\new@tpo@label[2]{}
\catcode `"\active 
\providecommand\HyperFirstAtBeginDocument{\AtBeginDocument}
\HyperFirstAtBeginDocument{\ifx\hyper@anchor\@undefined
\global\let\oldcontentsline\contentsline
\gdef\contentsline#1#2#3#4{\oldcontentsline{#1}{#2}{#3}}
\global\let\oldnewlabel\newlabel
\gdef\newlabel#1#2{\newlabelxx{#1}#2}
\gdef\newlabelxx#1#2#3#4#5#6{\oldnewlabel{#1}{{#2}{#3}}}
\AtEndDocument{\ifx\hyper@anchor\@undefined
\let\contentsline\oldcontentsline
\let\newlabel\oldnewlabel
\fi}
\fi}
\global\let\hyper@last\relax 
\gdef\HyperFirstAtBeginDocument#1{#1}
\providecommand\HyField@AuxAddToFields[1]{}
\providecommand\HyField@AuxAddToCoFields[2]{}
\bibstyle{alphadin}
\babel@aux{ngerman}{}
\citation{kochbuch}
\citation{rudl}
\citation{begleiter}
\citation{kopka}
\@writefile{toc}{\contentsline {section}{\numberline {1}Aufgabenstellung}{3}{section.1}}
\@writefile{toc}{\contentsline {subsection}{\numberline {1.1}Ziel}{3}{subsection.1.1}}
\@writefile{toc}{\contentsline {subsection}{\numberline {1.2}Anforderungen}{3}{subsection.1.2}}
\@writefile{toc}{\contentsline {subsection}{\numberline {1.3}Teilaufgaben}{3}{subsection.1.3}}
\@writefile{toc}{\contentsline {section}{\numberline {2}Ausgangssituation}{3}{section.2}}
\@writefile{toc}{\contentsline {section}{\numberline {3}Verbesserung der Emotionserkennung durch die Kamera}{3}{section.3}}
\@writefile{toc}{\contentsline {subsection}{\numberline {3.1}Machine Learning}{3}{subsection.3.1}}
\@writefile{toc}{\contentsline {subsection}{\numberline {3.2}Datenbasis}{3}{subsection.3.2}}
\@writefile{toc}{\contentsline {subsection}{\numberline {3.3}Kamerabilder}{3}{subsection.3.3}}
\@writefile{toc}{\contentsline {section}{\numberline {4}Emotionserkennung durch Sprache}{3}{section.4}}
\@writefile{toc}{\contentsline {section}{\numberline {5}Kombination von Bild und Sprache}{3}{section.5}}
\@writefile{toc}{\contentsline {section}{\numberline {6}Probleme}{3}{section.6}}
\@writefile{toc}{\contentsline {section}{\numberline {7}Benutzung}{3}{section.7}}
\@writefile{toc}{\contentsline {section}{\numberline {8}Ausblick}{3}{section.8}}
\@writefile{toc}{\contentsline {section}{\numberline {9}Aller Anfang ist schwer}{3}{section.9}}
\@writefile{toc}{\contentsline {section}{\numberline {10}Die ZIH-Formatvorlage}{3}{section.10}}
\@writefile{toc}{\contentsline {subsection}{\numberline {10.1}Einbinden der Vorlage}{3}{subsection.10.1}}
\@writefile{toc}{\contentsline {subsection}{\numberline {10.2}Verwenden der Vorlage}{4}{subsection.10.2}}
\@writefile{toc}{\contentsline {subsubsection}{\numberline {10.2.1}Seminararbeiten und ZIH-Artikel}{4}{subsubsection.10.2.1}}
\@writefile{toc}{\contentsline {subsubsection}{\numberline {10.2.2}Gro{\ss }e Belege und ZIH-Berichte}{6}{subsubsection.10.2.2}}
\@writefile{toc}{\contentsline {subsubsection}{\numberline {10.2.3}Diplomarbeiten, Bachelor-, Master-Arbeiten}{7}{subsubsection.10.2.3}}
\@writefile{toc}{\contentsline {subsubsection}{\numberline {10.2.4}Dissertationen}{8}{subsubsection.10.2.4}}
\citation{rudl}
\citation{rudl}
\@writefile{toc}{\contentsline {subsection}{\numberline {10.3}Zur Verf\"ugung gestellte Befehle}{10}{subsection.10.3}}
\@writefile{toc}{\contentsline {section}{\numberline {11}Besonderheiten und Hinweise}{11}{section.11}}
\@writefile{toc}{\contentsline {subsection}{\numberline {11.1}Grafiken und Tabellen}{11}{subsection.11.1}}
\newlabel{sec:grafiken}{{11.1}{11}{Grafiken und Tabellen}{subsection.11.1}{}}
\@writefile{lof}{\contentsline {figure}{\numberline {1}{\ignorespaces Das ZIH-Logo}}{11}{figure.1}}
\newlabel{fig:zhr_logo}{{1}{11}{Das ZIH-Logo}{figure.1}{}}
\@writefile{toc}{\contentsline {subsection}{\numberline {11.2}Literaturverweise}{11}{subsection.11.2}}
\@writefile{toc}{\contentsline {subsection}{\numberline {11.3}Dokumentaufteilung}{11}{subsection.11.3}}
\@writefile{toc}{\contentsline {subsection}{\numberline {11.4}Symbol- / Abk\"urzungsverzeichnisse}{11}{subsection.11.4}}
\newlabel{sec:nomencl}{{11.4}{11}{Symbol- / Abk\"urzungsverzeichnisse}{subsection.11.4}{}}
\@writefile{toc}{\contentsline {subsection}{\numberline {11.5}Umlaute}{12}{subsection.11.5}}
\newlabel{sec:umlaute}{{11.5}{12}{Umlaute}{subsection.11.5}{}}
\@writefile{toc}{\contentsline {subsection}{\numberline {11.6}Kleinigkeiten}{12}{subsection.11.6}}
\@writefile{toc}{\contentsline {section}{\numberline {12}Anregungen, Fehler und Verbesserungsvorschl\"age}{12}{section.12}}
\bibdata{doku}
\global\@namedef{scr@dte@section@lastmaxnumwidth}{16.55617pt}
\global\@namedef{scr@dte@subsection@lastmaxnumwidth}{23.54239pt}
\global\@namedef{scr@dte@subsubsection@lastmaxnumwidth}{31.75487pt}
